{
    "data": [
      {
        "id": 1,
        "title": "Great Service",
        "description": "The service was excellent. I am very satisfied.",
        "createdBy": "User1",
        "createdAt": "2023-07-28T01:09:49.000000Z"
      },
      {
        "id": 2,
        "title": "Could be better",
        "description": "The service was okay, but there is room for improvement.",
        "createdBy": "User2",
        "createdAt": "2023-07-20T01:09:49.000000Z"
      },
      {
        "id": 3,
        "title": "Unsatisfied",
        "description": "I am not happy with the service. It was below my expectations.",
        "createdBy": "User3",
        "createdAt": "2023-07-15T01:09:49.000000Z"
      },
      {
        "id": 4,
        "title": "Excellent",
        "description": "I am very happy with the service. It exceeded my expectations.",
        "createdBy": "User4",
        "createdAt": "2023-07-05T01:09:49.000000Z"
      }
    ],
    "links": {
        "first": "http:\/\/mahaputra.local\/client\/v1\/technician-review?page=1",
        "last": "http:\/\/mahaputra.local\/client\/v1\/technician-review?page=2",
        "prev": null,
        "next": "http:\/\/mahaputra.local\/client\/v1\/technician-review?page=2"
      },
      "meta": {
        "current_page": 1,
        "from": 1,
        "last_page": 2,
        "path": "http:\/\/mahaputra.local\/client\/v1\/technician-review",
        "per_page": 10,
        "to": 10,
        "total": 18
      }
  }