{
  "data": [
    {
      "id": 1,
      "origin": {
        "lat": -6.30935257,
        "lng": 106.8824274,
        "address": "Terminal Kampung Rambutan Jakarta",
        "date": "2024-07-01T09:00:00.000000Z"
      },
      "destination": {
        "lat": -6.945247835,
        "lng": 107.5933306,
        "address": "Terminal Leuwipanjang Bandung",
        "date": "2024-07-01T12:30:00.000000Z"
      },
      "total_point": 10,
      "total_distance": 145,
      "duration": "3:30:00",
      "created_at": "2024-07-01T09:00:00.000000Z"
    },
    {
      "id": 2,
      "origin": {
        "lat": -6.30935257,
        "lng": 106.8824274,
        "address": "Terminal Kampung Rambutan Jakarta",
        "date": "2024-07-02T09:00:00.000000Z"
      },
      "destination": {
        "lat": -6.60407115,
        "lng": 106.8060084,
        "address": "Terminal Baranagsiang Bogor",
        "date": "2024-07-02T10:30:00.000000Z"
      },
      "total_point": 30,
      "total_distance": 40,
      "duration": "1:30:00",
      "created_at": "2024-07-02T09:00:00.000000Z"
    },
    {
      "id": 3,
      "origin": {
        "lat": -6.30935257,
        "lng": 106.8824274,
        "address": "Terminal Kampung Rambutan Jakarta",
        "date": "2024-07-03T09:00:00.000000Z"
      },
      "destination": {
        "lat": -6.739740245,
        "lng": 108.5529033,
        "address": "Terminal Bus Harjamukti Cirebon",
        "date": "2024-07-03T13:30:00.000000Z"
      },
      "total_point": 50,
      "total_distance": 215,
      "duration": "4:30:00",
      "created_at": "2024-07-03T09:00:00.000000Z"
    },
    {
      "id": 4,
      "origin": {
        "lat": -6.154318645,
        "lng": 106.7058082,
        "address": "Terminal Kalideres",
        "date": "2024-07-04T09:00:00.000000Z"
      },
      "destination": {
        "lat": -6.283292054,
        "lng": 106.8437156,
        "address": "Terminal Pasar Minggu",
        "date": "2024-07-04T10:30:00.000000Z"
      },
      "total_point": 70,
      "total_distance": 36,
      "duration": "1:30:00",
      "created_at": "2024-07-04T09:00:00.000000Z"
    },
    {
      "id": 5,
      "origin": {
        "lat": -6.182680484,
        "lng": 106.909126,
        "address": "Terminal Bus Pulo Gadung",
        "date": "2024-07-05T09:00:00.000000Z"
      },
      "destination": {
        "lat": -6.109902868,
        "lng": 106.8819788,
        "address": "Terminal Bus Tanjung Priok",
        "date": "2024-07-05T09:50:00.000000Z"
      },
      "total_point": 85,
      "total_distance": 12,
      "duration": "0:50:00",
      "created_at": "2024-07-05T09:00:00.000000Z"
    },
    {
      "id": 6,
      "origin": {
        "lat": -6.166348347,
        "lng": 106.7904567,
        "address": "Terminal Bus Grogol",
        "date": "2024-07-06T09:00:00.000000Z"
      },
      "destination": {
        "lat": -6.224854203,
        "lng": 106.8668512,
        "address": "Terminal Kampung Melayu",
        "date": "2024-07-06T10:15:00.000000Z"
      },
      "total_point": 100,
      "total_distance": 20,
      "duration": "1:15:00",
      "created_at": "2024-07-06T09:00:00.000000Z"
    }
  ],
  "links": {
    "first": "http:\/\/mahaputra.local\/client\/v1\/technician-review?page=1",
    "last": "http:\/\/mahaputra.local\/client\/v1\/technician-review?page=2",
    "prev": null,
    "next": "http:\/\/mahaputra.local\/client\/v1\/technician-review?page=2"
  },
  "meta": {
    "current_page": 1,
    "from": 1,
    "last_page": 2,
    "path": "http:\/\/mahaputra.local\/client\/v1\/technician-review",
    "per_page": 10,
    "to": 10,
    "total": 18
  }
}