{
    "data": [
      {
        "id": 1,
        "origin": {
          "lat": -8.672782857572567,
          "lng": 115.24415558888278,
          "address": "Jl. Raya Puputan No.210, Renon",
          "date": "2024-01-10T01:10:30.000000Z"
        },
        "destination": {
          "lat": -8.67254704407627,
          "lng": 115.23578949639271,
          "address": "Jl. Juanda Karta Wijaya No.3",
          "date": "2024-01-10T01:11:00.000000Z"
        },
        "total_point": 10,
        "total_distance": 1.3,
        "duration": "00:30:40",
        "created_at": "2024-01-10T01:11:00.000000Z"
      },
      {
        "id": 2,
        "origin": {
          "lat": -8.66565794757329,
          "lng": 115.21616669632135,
          "address": "Jalan Diponegoro No.103",
          "date": "2024-01-10T01:13:00.000000Z"
        },
        "destination": {
          "lat": -8.69420918242076,
          "lng": 115.21844120938788,
          "address": "Jalan Raya Sesetan No.177",
          "date": "2024-01-10T01:14:30.000000Z"
        },
        "total_point": 20,
        "total_distance": 5.4,
        "duration": "01:30:40",
        "created_at": "2024-01-10T01:14:30.000000Z"
      },
      {
        "id": 3,
        "origin": {
          "lat": -8.663303060278409,
          "lng": 115.21866919304391,
          "address": "Jl. P.B. Sudirman No.1",
          "date": "2024-01-12T01:09:30.000000Z"
        },
        "destination": {
          "lat": -8.634461108071065,
          "lng": 115.23204318842215,
          "address": "Jl. Gatot Subroto Timur",
          "date": "2024-01-12T01:10:30.000000Z"
        },
        "total_point": 30,
        "total_distance": 25,
        "duration": "01:00:40",
        "created_at": "2024-01-12T01:10:30.000000Z"
      },
      {
        "id": 4,
        "origin": {
          "lat": -8.703445748835865,
          "lng": 115.24880082445799,
          "address": "Jalan Bypass Ngurah Rai No.548",
          "date": "2024-01-15T01:10:30.000000Z"
        },
        "destination": {
          "lat": -8.687848983340077,
          "lng": 115.25855042308689,
          "address": "Jalan Bypass Ngurah Rai No.77",
          "date": "2024-01-15T01:11:00.000000Z"
        },
        "total_point": 40,
        "total_distance": 10,
        "duration": "00:30:40",
        "created_at": "2024-01-15T01:11:00.000000Z"
      }
    ],
    "links": {
      "first": "http:\/\/mahaputra.local\/client\/v1\/technician-review?page=1",
      "last": "http:\/\/mahaputra.local\/client\/v1\/technician-review?page=2",
      "prev": null,
      "next": "http:\/\/mahaputra.local\/client\/v1\/technician-review?page=2"
    },
    "meta": {
      "current_page": 1,
      "from": 1,
      "last_page": 2,
      "path": "http:\/\/mahaputra.local\/client\/v1\/technician-review",
      "per_page": 10,
      "to": 10,
      "total": 18
    }
  }