{
    "data": [
      {
        "id": 1,
        "origin": {
          "lat": -6.275612906497911,
          "lng": 106.77714380309227,
          "address": "Jl. Gedung Pinang No.2, Kebayoran",
          "date": "2024-02-10T01:10:30.000000Z"
        },
        "destination": {
          "lat": -6.243504848215265,
          "lng": 106.78346129187901,
          "address": "Jl. Sultan Iskandar Muda, Kebayoran",
          "date": "2024-02-10T01:11:00.000000Z"
        },
        "total_point": 50,
        "total_distance": 12,
        "duration": "00:30:40",
        "created_at": "2024-02-10T01:11:00.000000Z"
      },
      {
        "id": 2,
        "origin": {
          "lat": -6.183458137253193,
          "lng": 106.83139364466439,
          "address": "Jalan Kebon Sirih, Jakarta",
          "date": "2024-02-10T01:13:00.000000Z"
        },
        "destination": {
          "lat": -6.188826527050936,
          "lng": 106.7965281432920,
          "address": "Jalan Letjen S. Parman",
          "date": "2024-02-10T01:14:30.000000Z"
        },
        "total_point": 20,
        "total_distance": 5.4,
        "duration": "01:30:40",
        "created_at": "2024-02-10T01:14:30.000000Z"
      },
      {
        "id": 3,
        "origin": {
          "lat": -6.170677763213779,
          "lng": 106.87085707381247,
          "address": "Jl. Cempaka Putih",
          "date": "2024-02-12T01:09:30.000000Z"
        },
        "destination": {
          "lat": -6.194193205566982,
          "lng": 106.84040132131821,
          "address": "Jl. Cikini Raya",
          "date": "2024-02-12T01:10:30.000000Z"
        },
        "total_point": 30,
        "total_distance": 25,
        "duration": "01:00:40",
        "created_at": "2024-02-12T01:10:30.000000Z"
      },
      {
        "id": 4,
        "origin": {
          "lat": -6.1526471262610185,
          "lng": 106.8497111160094,
          "address": "Jalan Super Blok Mega Kemayoran",
          "date": "2024-02-15T01:10:30.000000Z"
        },
        "destination": {
          "lat": -6.147808768029693,
          "lng": 106.8386187757191,
          "address": "Jalan Rajawali Selatan Raya",
          "date": "2024-02-15T01:11:00.000000Z"
        },
        "total_point": 40,
        "total_distance": 10,
        "duration": "00:30:40",
        "created_at": "2024-02-15T01:11:00.000000Z"
      }
    ],
    "links": {
      "first": "http:\/\/mahaputra.local\/client\/v1\/technician-review?page=1",
      "last": "http:\/\/mahaputra.local\/client\/v1\/technician-review?page=2",
      "prev": null,
      "next": "http:\/\/mahaputra.local\/client\/v1\/technician-review?page=2"
    },
    "meta": {
      "current_page": 1,
      "from": 1,
      "last_page": 2,
      "path": "http:\/\/mahaputra.local\/client\/v1\/technician-review",
      "per_page": 10,
      "to": 10,
      "total": 18
    }
  }