{
  "data": [
    {
      "id": 1,
      "origin": {
        "lat": -8.681547132266411,
        "lng": 115.24069589508952,
        "address": "Jalan pulau adi",
        "date": "2023-07-28T01:09:49.000000Z"
      },
      "destination": {
        "lat": -8.677846354619318,
        "lng": 115.23787020063237,
        "address": "Jalan pulau misol",
        "date": "2023-07-28T01:09:49.000000Z"
      },
      "total_point": 10,
      "total_distance": 15,
      "duration": "00:30:40",
      "created_at": "2023-07-28T01:09:49.000000Z"
    },
    {
      "id": 2,
      "origin": {
        "lat": -8.681547132266411,
        "lng": 115.24069589508952,
        "address": "Jalan teuku umar barat",
        "date": "2023-07-28T01:09:49.000000Z"
      },
      "destination": {
        "lat": -8.677846354619318,
        "lng": 115.23787020063237,
        "address": "Jalan teuku umar",
        "date": "2023-07-28T01:09:49.000000Z"
      },
      "total_point": 25,
      "total_distance": 100,
      "duration": "05:30:40",
      "created_at": "2023-07-28T01:09:49.000000Z"
    },
    {
      "id": 3,
      "origin": {
        "lat": -8.681547132266411,
        "lng": 115.24069589508952,
        "address": "Jalan teuku umar utara",
        "date": "2023-07-28T01:09:49.000000Z"
      },
      "destination": {
        "lat": -8.677846354619318,
        "lng": 115.23787020063237,
        "address": "Jalan teuku umar timur",
        "date": "2023-07-28T01:09:49.000000Z"
      },
      "total_point": 45,
      "total_distance": 50,
      "duration": "01:15:40",
      "created_at": "2023-07-28T01:09:49.000000Z"
    },
    {
      "id": 4,
      "origin": {
        "lat": -8.681547132266411,
        "lng": 115.24069589508952,
        "address": "Jalan teuku umar selatan",
        "date": "2023-07-28T01:09:49.000000Z"
      },
      "destination": {
        "lat": -8.677846354619318,
        "lng": 115.23787020063237,
        "address": "Jalan pulau misol",
        "date": "2023-07-28T01:09:49.000000Z"
      },
      "total_point": 100,
      "total_distance": 10,
      "duration": "02:30:40",
      "created_at": "2023-07-28T01:09:49.000000Z"
    }
  ],
  "links": {
    "first": "http:\/\/mahaputra.local\/client\/v1\/technician-review?page=1",
    "last": "http:\/\/mahaputra.local\/client\/v1\/technician-review?page=2",
    "prev": null,
    "next": "http:\/\/mahaputra.local\/client\/v1\/technician-review?page=2"
  },
  "meta": {
    "current_page": 1,
    "from": 1,
    "last_page": 2,
    "path": "http:\/\/mahaputra.local\/client\/v1\/technician-review",
    "per_page": 10,
    "to": 10,
    "total": 18
  }
}