{
  "data": [
    {
      "id": 1,
      "origin": {
        "lat": -6.243489323,
        "lng": 106.8001981,
        "address": "Terminal Blok M",
        "date": "2024-06-19T09:00:00.000000Z"
      },
      "destination": {
        "lat": -6.209103817,
        "lng": 106.8475952,
        "address": "Terminal Manggarai",
        "date": "2024-06-19T09:50:00.000000Z"
      },
      "total_point": 0,
      "total_distance": 11,
      "duration": "0:50:00",
      "created_at": "2024-06-19T09:00:00.000000Z"
    },
    {
      "id": 2,
      "origin": {
        "lat": -6.243489323,
        "lng": 106.8001981,
        "address": "Terminal Blok M",
        "date": "2024-06-20T09:00:00.000000Z"
      },
      "destination": {
        "lat": -6.283292054,
        "lng": 106.8437156,
        "address": "Terminal Pasar Minggu",
        "date": "2024-06-20T09:55:00.000000Z"
      },
      "total_point": 10,
      "total_distance": 12,
      "duration": "0:55:00",
      "created_at": "2024-06-20T09:00:00.000000Z"
    },
    {
      "id": 3,
      "origin": {
        "lat": -6.243489323,
        "lng": 106.8001981,
        "address": "Terminal Blok M",
        "date": "2024-06-21T09:00:00.000000Z"
      },
      "destination": {
        "lat": -6.173527683,
        "lng": 106.8421919,
        "address": "Terminal Senen",
        "date": "2024-06-21T09:50:00.000000Z"
      },
      "total_point": 30,
      "total_distance": 12,
      "duration": "0:50:00",
      "created_at": "2024-06-21T09:00:00.000000Z"
    },
    {
      "id": 4,
      "origin": {
        "lat": -6.288544577,
        "lng": 106.7711786,
        "address": "Terminal Lebak Bulus",
        "date": "2024-06-22T09:00:00.000000Z"
      },
      "destination": {
        "lat": -6.243489323,
        "lng": 106.8001981,
        "address": "Terminal Blok M",
        "date": "2024-06-22T09:40:00.000000Z"
      },
      "total_point": 50,
      "total_distance": 11,
      "duration": "0:40:00",
      "created_at": "2024-06-22T09:00:00.000000Z"
    },
    {
      "id": 5,
      "origin": {
        "lat": -6.288544577,
        "lng": 106.7711786,
        "address": "Terminal Lebak Bulus",
        "date": "2024-06-23T09:00:00.000000Z"
      },
      "destination": {
        "lat": -6.283292054,
        "lng": 106.8437156,
        "address": "Terminal Pasar Minggu",
        "date": "2024-06-23T09:30:00.000000Z"
      },
      "total_point": 70,
      "total_distance": 11,
      "duration": "0:30:00",
      "created_at": "2024-06-23T09:00:00.000000Z"
    },
    {
      "id": 6,
      "origin": {
        "lat": -6.288544577,
        "lng": 106.7711786,
        "address": "Terminal Lebak Bulus",
        "date": "2024-06-24T09:00:00.000000Z"
      },
      "destination": {
        "lat": -6.173527683,
        "lng": 106.8421919,
        "address": "Terminal Senen",
        "date": "2024-06-24T10:30:00.000000Z"
      },
      "total_point": 85,
      "total_distance": 36,
      "duration": "1:30:00",
      "created_at": "2024-06-24T09:00:00.000000Z"
    }
  ],
  "links": {
    "first": "http:\/\/mahaputra.local\/client\/v1\/technician-review?page=1",
    "last": "http:\/\/mahaputra.local\/client\/v1\/technician-review?page=2",
    "prev": null,
    "next": "http:\/\/mahaputra.local\/client\/v1\/technician-review?page=2"
  },
  "meta": {
    "current_page": 1,
    "from": 1,
    "last_page": 2,
    "path": "http:\/\/mahaputra.local\/client\/v1\/technician-review",
    "per_page": 10,
    "to": 10,
    "total": 18
  }
}